{
    "name": "Aldor Peacekeeper",
    "manaCost": 3,
    "health" : 3,
    "attack" : 3,
    "charge": false,
    "windfury": false,
    "lifesteal" : false,
    "poisonous" : false,
    "rush" : false,
    "shield" : false,
    "type" : "Minion",
    "taut" : false,
    "canAttack": true,
    "hasBattlecry" : true,
    "timeOnField": 1,
    "attackInOnce": 0,
    "heroClass": "Paladin",
    "rarity": "Rare",
    "description": "Battlecry: Change an enemy minion's Attack to 1.",
    "price" : 5
  }