{
    "name": "Learn Draconic",
    "manaCost": 1,
    "type": "Spell",
    "heroClass": "Any",
    "rarity": "Common",
    "description": "Sidequest: Spend 8 Mana on spells. Reward: Summon a 6/6 Dragon.",
    "price" : 5
  }