{
    "name": "Madame Lazul",
    "manaCost": 3,
    "health" : 2,
    "attack" : 3,
    "charge": false,
    "rush" : false,
    "type" : "Minion",
    "taut" : false,
    "canAttack": true,
    "windfury": false,
    "lifesteal" : false,
    "poisonous" : false,
    "shield" : false,
    "hasBattlecry": true,
    "timeOnField": 1,
    "attackInOnce": 0,
    "subType" : null,
    "heroClass": "Priest",
    "rarity": "Legendary",
    "description": "Battlecry: Discover a copy of a card in your oppponent's hand.",
    "price" : 10
  }