{
    "name": "Strength in Numbers",
    "manaCost": 1,
    "type": "Spell",
    "heroClass": "Any",
    "rarity": "Common",
    "description": "Sidequest: Spend 10 Mana on minions. Reward: Summon a minion from your deck.",
    "price" : 5
  }