{
    "name": "Violet Apprentice",
    "manaCost": 1,
    "health" : 1,
    "attack" : 1,
    "charge": false,
    "rush" : false,
    "shield" : false,
    "windfury": false,
    "lifesteal" : false,
    "poisonous" : false,
    "canAttack" : true,
    "type" : "Minion",
    "taut" : false,
    "subType" : null,
    "heroClass": "Any",
    "rarity": "Common",
    "description": null,
    "price" : 5
  }