{
  "username" : "imaginary",
  "password" : "267181995c1778473ecb9b80276bcac42b96afab",
  "gems" : 30,
  "currentHero" : {
    "name" : "Mage",
    "blood" : 30,
    "classCards" : [ {
      "name" : "Arcane Breath",
      "manaCost" : 1,
      "type" : "Spell",
      "heroClass" : "Mage",
      "rarity" : "Rare",
      "description" : "Deal 2 damage to a minion. If you're holding a Dragon, Discover a spell.",
      "price" : 5,
      "cardImageAddress" : null,
      "summon" : false
    }, {
      "name" : "Polymorph",
      "manaCost" : 4,
      "type" : "Spell",
      "heroClass" : "Mage",
      "rarity" : "Rare",
      "description" : "Transform a minion into a 1/1 Sheep.",
      "price" : 5,
      "cardImageAddress" : null,
      "summon" : false
    } ],
    "cards_PATH" : "src\\Cards\\ClassCards\\Mage\\"
  },
  "allAvailableCards" : [ {
    "name" : "Bazaar Burglary",
    "manaCost" : 1,
    "type" : "Spell",
    "heroClass" : "Rogue",
    "rarity" : "Legendary",
    "description" : "Quest: Add 4 cards from other classes to your hand. Reward: Ancient Blades.",
    "price" : 5,
    "cardImageAddress" : null,
    "summon" : false
  }, {
    "name" : "Friendly Smith",
    "manaCost" : 1,
    "type" : "Spell",
    "heroClass" : "Rogue",
    "rarity" : "Free",
    "description" : "Discover a weapon from any class. Add it to your Adventure Deck with +2/+2.",
    "price" : 5,
    "cardImageAddress" : null,
    "summon" : false
  }, {
    "name" : "Corruption",
    "manaCost" : 1,
    "type" : "Spell",
    "heroClass" : "Warlock",
    "rarity" : "Free",
    "description" : "Choose an enemy minion. At the start of your turn, destroy it.",
    "price" : 5,
    "cardImageAddress" : null,
    "summon" : false
  }, {
    "name" : "Dreadscale",
    "manaCost" : 3,
    "type" : "Minion",
    "heroClass" : "Warlock",
    "rarity" : "Legendary",
    "description" : "At the end of your turn, deal 1 damage to all other minions.",
    "price" : 5,
    "cardImageAddress" : null,
    "summon" : false
  }, {
    "name" : "Polymorph",
    "manaCost" : 4,
    "type" : "Spell",
    "heroClass" : "Mage",
    "rarity" : "Rare",
    "description" : "Transform a minion into a 1/1 Sheep.",
    "price" : 5,
    "cardImageAddress" : null,
    "summon" : false
  }, {
    "name" : "Arcane Breath",
    "manaCost" : 1,
    "type" : "Spell",
    "heroClass" : "Mage",
    "rarity" : "Rare",
    "description" : "Deal 2 damage to a minion. If you're holding a Dragon, Discover a spell.",
    "price" : 5,
    "cardImageAddress" : "src\\main\\resources\\ir\\mrbenyamin\\firestone\\images\\cards\\Arcane Breath.png",
    "summon" : false
  }, {
    "name" : "Goldshire Footman",
    "manaCost" : 1,
    "type" : "Minion",
    "heroClass" : "Any",
    "rarity" : "Common",
    "description" : "If 1/2 minions are all that is defending Goldshire, you would think it would have been overrun years ago.",
    "price" : 5,
    "cardImageAddress" : null,
    "summon" : false
  }, {
    "name" : "Knife Juggler",
    "manaCost" : 2,
    "type" : "Minion",
    "heroClass" : "Any",
    "rarity" : "Rare",
    "description" : "Ambitious Knife Jugglers sometimes graduate to Bomb Jugglers. They never last long enough to make it onto a card though.",
    "price" : 5,
    "cardImageAddress" : null,
    "summon" : false
  }, {
    "name" : "River Crocolisk",
    "manaCost" : 2,
    "type" : "Minion",
    "heroClass" : "Any",
    "rarity" : "Common",
    "description" : null,
    "price" : 5,
    "cardImageAddress" : null,
    "summon" : false
  }, {
    "name" : "Sharkbait",
    "manaCost" : 4,
    "type" : "Minion",
    "heroClass" : "Any",
    "rarity" : "Legendary",
    "description" : "Rush",
    "price" : 5,
    "cardImageAddress" : null,
    "summon" : false
  }, {
    "name" : "Tolin's Goblet",
    "manaCost" : 3,
    "type" : "Spell",
    "heroClass" : "Any",
    "rarity" : "Common",
    "description" : "Give a minion +1/+1.",
    "price" : 0,
    "cardImageAddress" : null,
    "summon" : false
  }, {
    "name" : "Woodchip",
    "manaCost" : 1,
    "type" : "Minion",
    "heroClass" : "Any",
    "rarity" : "Common",
    "description" : null,
    "price" : 5,
    "cardImageAddress" : null,
    "summon" : false
  }, {
    "name" : "Violet Apprentice",
    "manaCost" : 1,
    "type" : "Minion",
    "heroClass" : "Any",
    "rarity" : "Common",
    "description" : null,
    "price" : 5,
    "cardImageAddress" : null,
    "summon" : false
  }, {
    "name" : "Ragnaros the Firelord",
    "manaCost" : 8,
    "type" : "Minion",
    "heroClass" : "Any",
    "rarity" : "Legendary",
    "description" : "Can't attack. At the end of your turn, deal 8 damage to a random enemy.",
    "price" : 5,
    "cardImageAddress" : null,
    "summon" : false
  } ],
  "availableHeroes" : [ {
    "name" : "Mage",
    "blood" : 30,
    "classCards" : [ {
      "name" : "Arcane Breath",
      "manaCost" : 1,
      "type" : "Spell",
      "heroClass" : "Mage",
      "rarity" : "Rare",
      "description" : "Deal 2 damage to a minion. If you're holding a Dragon, Discover a spell.",
      "price" : 5,
      "cardImageAddress" : null,
      "summon" : false
    }, {
      "name" : "Polymorph",
      "manaCost" : 4,
      "type" : "Spell",
      "heroClass" : "Mage",
      "rarity" : "Rare",
      "description" : "Transform a minion into a 1/1 Sheep.",
      "price" : 5,
      "cardImageAddress" : null,
      "summon" : false
    } ],
    "cards_PATH" : "src\\Cards\\ClassCards\\Mage\\"
  } ],
  "decks" : [ {
    "name" : "Default1",
    "hero" : {
      "name" : "Mage",
      "blood" : 30,
      "classCards" : [ {
        "name" : "Arcane Breath",
        "manaCost" : 1,
        "type" : "Spell",
        "heroClass" : "Mage",
        "rarity" : "Rare",
        "description" : "Deal 2 damage to a minion. If you're holding a Dragon, Discover a spell.",
        "price" : 5,
        "cardImageAddress" : null,
        "summon" : false
      }, {
        "name" : "Polymorph",
        "manaCost" : 4,
        "type" : "Spell",
        "heroClass" : "Mage",
        "rarity" : "Rare",
        "description" : "Transform a minion into a 1/1 Sheep.",
        "price" : 5,
        "cardImageAddress" : null,
        "summon" : false
      } ],
      "cards_PATH" : "src\\Cards\\ClassCards\\Mage\\"
    },
    "cards" : [ {
      "name" : "River Crocolisk",
      "manaCost" : 2,
      "type" : "Minion",
      "heroClass" : "Any",
      "rarity" : "Common",
      "description" : null,
      "price" : 5,
      "cardImageAddress" : null,
      "summon" : false
    }, {
      "name" : "Knife Juggler",
      "manaCost" : 2,
      "type" : "Minion",
      "heroClass" : "Any",
      "rarity" : "Rare",
      "description" : "Ambitious Knife Jugglers sometimes graduate to Bomb Jugglers. They never last long enough to make it onto a card though.",
      "price" : 5,
      "cardImageAddress" : null,
      "summon" : false
    }, {
      "name" : "River Crocolisk",
      "manaCost" : 2,
      "type" : "Minion",
      "heroClass" : "Any",
      "rarity" : "Common",
      "description" : null,
      "price" : 5,
      "cardImageAddress" : null,
      "summon" : false
    }, {
      "name" : "Arcane Breath",
      "manaCost" : 1,
      "type" : "Spell",
      "heroClass" : "Mage",
      "rarity" : "Rare",
      "description" : "Deal 2 damage to a minion. If you're holding a Dragon, Discover a spell.",
      "price" : 5,
      "cardImageAddress" : "src\\main\\resources\\ir\\mrbenyamin\\firestone\\images\\cards\\Arcane Breath.png",
      "summon" : false
    }, {
      "name" : "Arcane Breath",
      "manaCost" : 1,
      "type" : "Spell",
      "heroClass" : "Mage",
      "rarity" : "Rare",
      "description" : "Deal 2 damage to a minion. If you're holding a Dragon, Discover a spell.",
      "price" : 5,
      "cardImageAddress" : "src\\main\\resources\\ir\\mrbenyamin\\firestone\\images\\cards\\Arcane Breath.png",
      "summon" : false
    }, {
      "name" : "Ragnaros the Firelord",
      "manaCost" : 8,
      "type" : "Minion",
      "heroClass" : "Any",
      "rarity" : "Legendary",
      "description" : "Can't attack. At the end of your turn, deal 8 damage to a random enemy.",
      "price" : 5,
      "cardImageAddress" : null,
      "summon" : false
    }, {
      "name" : "Sharkbait",
      "manaCost" : 4,
      "type" : "Minion",
      "heroClass" : "Any",
      "rarity" : "Legendary",
      "description" : "Rush",
      "price" : 5,
      "cardImageAddress" : null,
      "summon" : false
    }, {
      "name" : "Sharkbait",
      "manaCost" : 4,
      "type" : "Minion",
      "heroClass" : "Any",
      "rarity" : "Legendary",
      "description" : "Rush",
      "price" : 5,
      "cardImageAddress" : null,
      "summon" : false
    }, {
      "name" : "Woodchip",
      "manaCost" : 1,
      "type" : "Minion",
      "heroClass" : "Any",
      "rarity" : "Common",
      "description" : null,
      "price" : 5,
      "cardImageAddress" : null,
      "summon" : false
    }, {
      "name" : "Woodchip",
      "manaCost" : 1,
      "type" : "Minion",
      "heroClass" : "Any",
      "rarity" : "Common",
      "description" : null,
      "price" : 5,
      "cardImageAddress" : null,
      "summon" : false
    }, {
      "name" : "Violet Apprentice",
      "manaCost" : 1,
      "type" : "Minion",
      "heroClass" : "Any",
      "rarity" : "Common",
      "description" : null,
      "price" : 5,
      "cardImageAddress" : null,
      "summon" : false
    }, {
      "name" : "Violet Apprentice",
      "manaCost" : 1,
      "type" : "Minion",
      "heroClass" : "Any",
      "rarity" : "Common",
      "description" : null,
      "price" : 5,
      "cardImageAddress" : null,
      "summon" : false
    }, {
      "name" : "Tolin's Goblet",
      "manaCost" : 3,
      "type" : "Spell",
      "heroClass" : "Any",
      "rarity" : "Common",
      "description" : "Give a minion +1/+1.",
      "price" : 0,
      "cardImageAddress" : null,
      "summon" : false
    }, {
      "name" : "Tolin's Goblet",
      "manaCost" : 3,
      "type" : "Spell",
      "heroClass" : "Any",
      "rarity" : "Common",
      "description" : "Give a minion +1/+1.",
      "price" : 0,
      "cardImageAddress" : null,
      "summon" : false
    }, {
      "name" : "Ragnaros the Firelord",
      "manaCost" : 8,
      "type" : "Minion",
      "heroClass" : "Any",
      "rarity" : "Legendary",
      "description" : "Can't attack. At the end of your turn, deal 8 damage to a random enemy.",
      "price" : 5,
      "cardImageAddress" : null,
      "summon" : false
    } ],
    "winsCount" : 0,
    "allGamesCount" : 0,
    "winToAll" : 0.0,
    "sumOfMana" : 2,
    "countOfCards" : 1,
    "useCountsOfCards" : { },
    "mostUsedCard" : null,
    "manaPerCard" : 2.8
  }, {
    "name" : "Default2",
    "hero" : {
      "name" : "Mage",
      "blood" : 30,
      "classCards" : [ {
        "name" : "Arcane Breath",
        "manaCost" : 1,
        "type" : "Spell",
        "heroClass" : "Mage",
        "rarity" : "Rare",
        "description" : "Deal 2 damage to a minion. If you're holding a Dragon, Discover a spell.",
        "price" : 5,
        "cardImageAddress" : null,
        "summon" : false
      }, {
        "name" : "Polymorph",
        "manaCost" : 4,
        "type" : "Spell",
        "heroClass" : "Mage",
        "rarity" : "Rare",
        "description" : "Transform a minion into a 1/1 Sheep.",
        "price" : 5,
        "cardImageAddress" : null,
        "summon" : false
      } ],
      "cards_PATH" : "src\\Cards\\ClassCards\\Mage\\"
    },
    "cards" : [ ],
    "winsCount" : 0,
    "allGamesCount" : 0,
    "winToAll" : 0.0,
    "sumOfMana" : 0,
    "countOfCards" : 0,
    "useCountsOfCards" : { },
    "mostUsedCard" : null,
    "manaPerCard" : -1.0
  } ],
  "changedCardFinalI" : [ ],
  "handCards" : [ {
    "name" : "Security Rover",
    "manaCost" : 6,
    "type" : "Minion",
    "heroClass" : "Any",
    "rarity" : "Rare",
    "description" : "Whenever this minion takes damage, summon a 2/3 Mech with Taunt.",
    "price" : 5,
    "cardImageAddress" : null,
    "health" : 6,
    "attack" : 2,
    "subType" : "Mech",
    "canAttack" : true,
    "timeOnField" : 1,
    "attackInOnce" : 0,
    "taut" : false,
    "hasBattlecry" : false,
    "rush" : false,
    "charge" : false,
    "shield" : false,
    "windfury" : false,
    "lifesteal" : false,
    "poisonous" : false,
    "summon" : false
  }, {
    "name" : "Tomb Warden",
    "manaCost" : 8,
    "type" : "Minion",
    "heroClass" : "Any",
    "rarity" : "Rare",
    "description" : "Taunt, Battlecry: Summon a copy of this minion.",
    "price" : 5,
    "cardImageAddress" : null,
    "health" : 6,
    "attack" : 3,
    "subType" : "Mech",
    "canAttack" : true,
    "timeOnField" : 0,
    "attackInOnce" : 0,
    "taut" : true,
    "hasBattlecry" : true,
    "rush" : false,
    "charge" : false,
    "shield" : false,
    "windfury" : false,
    "lifesteal" : false,
    "poisonous" : false,
    "summon" : false
  }, {
    "name" : "Murloc Tidecaller",
    "manaCost" : 1,
    "type" : "Minion",
    "heroClass" : "Any",
    "rarity" : "Rare",
    "description" : "Whenever you summon a Murloc, gain +1 Attack.",
    "price" : 5,
    "cardImageAddress" : null,
    "health" : 2,
    "attack" : 1,
    "subType" : "Murloc",
    "canAttack" : true,
    "timeOnField" : 1,
    "attackInOnce" : 0,
    "taut" : false,
    "hasBattlecry" : true,
    "rush" : false,
    "charge" : false,
    "shield" : false,
    "windfury" : false,
    "lifesteal" : false,
    "poisonous" : false,
    "summon" : false
  }, {
    "name" : "Madame Lazul",
    "manaCost" : 3,
    "type" : "Minion",
    "heroClass" : "Priest",
    "rarity" : "Legendary",
    "description" : "Battlecry: Discover a copy of a card in your oppponent's hand.",
    "price" : 10,
    "cardImageAddress" : null,
    "health" : 2,
    "attack" : 3,
    "subType" : null,
    "canAttack" : true,
    "timeOnField" : 1,
    "attackInOnce" : 0,
    "taut" : false,
    "hasBattlecry" : true,
    "rush" : false,
    "charge" : false,
    "shield" : false,
    "windfury" : false,
    "lifesteal" : false,
    "poisonous" : false,
    "summon" : false
  }, {
    "name" : "Security Rover",
    "manaCost" : 6,
    "type" : "Minion",
    "heroClass" : "Any",
    "rarity" : "Rare",
    "description" : "Whenever this minion takes damage, summon a 2/3 Mech with Taunt.",
    "price" : 5,
    "cardImageAddress" : null,
    "health" : 6,
    "attack" : 2,
    "subType" : "Mech",
    "canAttack" : true,
    "timeOnField" : 1,
    "attackInOnce" : 0,
    "taut" : false,
    "hasBattlecry" : false,
    "rush" : false,
    "charge" : false,
    "shield" : false,
    "windfury" : false,
    "lifesteal" : false,
    "poisonous" : false,
    "summon" : false
  } ],
  "currentDeck" : {
    "name" : "enemyDeck",
    "hero" : {
      "name" : "Mage",
      "blood" : 30,
      "classCards" : [ {
        "name" : "Arcane Breath",
        "manaCost" : 1,
        "type" : "Spell",
        "heroClass" : "Mage",
        "rarity" : "Rare",
        "description" : "Deal 2 damage to a minion. If you're holding a Dragon, Discover a spell.",
        "price" : 5,
        "cardImageAddress" : null,
        "summon" : false
      }, {
        "name" : "Polymorph",
        "manaCost" : 4,
        "type" : "Spell",
        "heroClass" : "Mage",
        "rarity" : "Rare",
        "description" : "Transform a minion into a 1/1 Sheep.",
        "price" : 5,
        "cardImageAddress" : null,
        "summon" : false
      } ],
      "cards_PATH" : "src\\Cards\\ClassCards\\Mage\\"
    },
    "cards" : [ {
      "name" : "Battle Axe",
      "manaCost" : 2,
      "type" : "Weapon",
      "heroClass" : "Any",
      "rarity" : "Common",
      "description" : null,
      "price" : 10,
      "cardImageAddress" : null,
      "summon" : false
    }, {
      "name" : "Dreadscale",
      "manaCost" : 3,
      "type" : "Minion",
      "heroClass" : "Warlock",
      "rarity" : "Legendary",
      "description" : "At the end of your turn, deal 1 damage to all other minions.",
      "price" : 5,
      "cardImageAddress" : null,
      "summon" : false
    }, {
      "name" : "Sprint",
      "manaCost" : 7,
      "type" : "Spell",
      "heroClass" : "Any",
      "rarity" : "Free",
      "description" : "Draw 4 cards.",
      "price" : 5,
      "cardImageAddress" : null,
      "summon" : false
    }, {
      "name" : "Madame Lazul",
      "manaCost" : 3,
      "type" : "Minion",
      "heroClass" : "Priest",
      "rarity" : "Legendary",
      "description" : "Battlecry: Discover a copy of a card in your oppponent's hand.",
      "price" : 10,
      "cardImageAddress" : null,
      "summon" : false
    }, {
      "name" : "Ysera Awakens",
      "manaCost" : 2,
      "type" : "Spell",
      "heroClass" : "Any",
      "rarity" : "Common",
      "description" : "Deal 5 damage to all characters except Ysera.",
      "price" : 0,
      "cardImageAddress" : null,
      "summon" : false
    }, {
      "name" : "Murloc Tidecaller",
      "manaCost" : 1,
      "type" : "Minion",
      "heroClass" : "Any",
      "rarity" : "Rare",
      "description" : "Whenever you summon a Murloc, gain +1 Attack.",
      "price" : 5,
      "cardImageAddress" : null,
      "summon" : false
    }, {
      "name" : "Nightmare",
      "manaCost" : 0,
      "type" : "Spell",
      "heroClass" : "Any",
      "rarity" : "Common",
      "description" : "Give a minion +5/+5. At the start of your next turn, destroy it.",
      "price" : 0,
      "cardImageAddress" : null,
      "summon" : false
    }, {
      "name" : "Tomb Warden",
      "manaCost" : 8,
      "type" : "Minion",
      "heroClass" : "Any",
      "rarity" : "Rare",
      "description" : "Taunt, Battlecry: Summon a copy of this minion.",
      "price" : 5,
      "cardImageAddress" : null,
      "summon" : false
    }, {
      "name" : "Tolin's Goblet",
      "manaCost" : 3,
      "type" : "Spell",
      "heroClass" : "Any",
      "rarity" : "Common",
      "description" : "Give a minion +1/+1.",
      "price" : 0,
      "cardImageAddress" : null,
      "summon" : false
    }, {
      "name" : "Arcane Breath",
      "manaCost" : 1,
      "type" : "Spell",
      "heroClass" : "Mage",
      "rarity" : "Rare",
      "description" : "Deal 2 damage to a minion. ",
      "price" : 5,
      "cardImageAddress" : "src\\main\\resources\\ir\\mrbenyamin\\firestone\\images\\cards\\Arcane Breath.png",
      "summon" : false
    }, {
      "name" : "Corruption",
      "manaCost" : 1,
      "type" : "Spell",
      "heroClass" : "Warlock",
      "rarity" : "Free",
      "description" : "Choose an enemy minion. At the start of your turn, destroy it.",
      "price" : 5,
      "cardImageAddress" : null,
      "summon" : false
    }, {
      "name" : "River Crocolisk",
      "manaCost" : 2,
      "type" : "Minion",
      "heroClass" : "Any",
      "rarity" : "Common",
      "description" : null,
      "price" : 5,
      "cardImageAddress" : null,
      "summon" : false
    } ],
    "winsCount" : 8,
    "allGamesCount" : 11,
    "winToAll" : 0.0,
    "sumOfMana" : 33,
    "countOfCards" : 12,
    "useCountsOfCards" : {
      "Nightmare" : 1,
      "River Crocolisk" : 4
    },
    "mostUsedCard" : null,
    "manaPerCard" : 2.75
  },
  "playingDeck" : {
    "name" : "enemyDeck",
    "hero" : {
      "name" : "Mage",
      "blood" : 10,
      "classCards" : [ {
        "name" : "Arcane Breath",
        "manaCost" : 1,
        "type" : "Spell",
        "heroClass" : "Mage",
        "rarity" : "Rare",
        "description" : "Deal 2 damage to a minion. If you're holding a Dragon, Discover a spell.",
        "price" : 5,
        "cardImageAddress" : null,
        "summon" : false
      }, {
        "name" : "Polymorph",
        "manaCost" : 4,
        "type" : "Spell",
        "heroClass" : "Mage",
        "rarity" : "Rare",
        "description" : "Transform a minion into a 1/1 Sheep.",
        "price" : 5,
        "cardImageAddress" : null,
        "summon" : false
      } ],
      "cards_PATH" : "src\\Cards\\ClassCards\\Mage\\"
    },
    "cards" : [ ],
    "winsCount" : 0,
    "allGamesCount" : 0,
    "winToAll" : 0.0,
    "sumOfMana" : 51,
    "countOfCards" : 12,
    "useCountsOfCards" : { },
    "mostUsedCard" : null,
    "manaPerCard" : -1.0
  },
  "onFieldMinions" : [ {
    "name" : "Security Rover",
    "manaCost" : 6,
    "type" : "Minion",
    "heroClass" : "Any",
    "rarity" : "Rare",
    "description" : "Whenever this minion takes damage, summon a 2/3 Mech with Taunt.",
    "price" : 5,
    "cardImageAddress" : null,
    "health" : 4,
    "attack" : 2,
    "subType" : "Mech",
    "canAttack" : true,
    "timeOnField" : 12,
    "attackInOnce" : 0,
    "taut" : false,
    "hasBattlecry" : false,
    "rush" : false,
    "charge" : false,
    "shield" : false,
    "windfury" : false,
    "lifesteal" : false,
    "poisonous" : false,
    "summon" : false
  }, {
    "name" : "Security Rover",
    "manaCost" : 6,
    "type" : "Minion",
    "heroClass" : "Any",
    "rarity" : "Rare",
    "description" : "Whenever this minion takes damage, summon a 2/3 Mech with Taunt.",
    "price" : 5,
    "cardImageAddress" : null,
    "health" : 6,
    "attack" : 2,
    "subType" : "Mech",
    "canAttack" : true,
    "timeOnField" : 4,
    "attackInOnce" : 0,
    "taut" : false,
    "hasBattlecry" : false,
    "rush" : false,
    "charge" : false,
    "shield" : false,
    "windfury" : false,
    "lifesteal" : false,
    "poisonous" : false,
    "summon" : false
  }, {
    "name" : "Woodchip",
    "manaCost" : 1,
    "type" : "Minion",
    "heroClass" : "Any",
    "rarity" : "Common",
    "description" : null,
    "price" : 5,
    "cardImageAddress" : null,
    "health" : 1,
    "attack" : 1,
    "subType" : null,
    "canAttack" : true,
    "timeOnField" : 1,
    "attackInOnce" : 0,
    "taut" : false,
    "hasBattlecry" : false,
    "rush" : false,
    "charge" : false,
    "shield" : false,
    "windfury" : false,
    "lifesteal" : false,
    "poisonous" : false,
    "summon" : false
  }, {
    "name" : "Dreadscale",
    "manaCost" : 3,
    "type" : "Minion",
    "heroClass" : "Warlock",
    "rarity" : "Legendary",
    "description" : "At the end of your turn, deal 1 damage to all other minions.",
    "price" : 5,
    "cardImageAddress" : null,
    "health" : 2,
    "attack" : 4,
    "subType" : "Beast",
    "canAttack" : true,
    "timeOnField" : 2,
    "attackInOnce" : 0,
    "taut" : false,
    "hasBattlecry" : false,
    "rush" : false,
    "charge" : false,
    "shield" : false,
    "windfury" : false,
    "lifesteal" : false,
    "poisonous" : false,
    "summon" : false
  } ],
  "playedSpells" : [ {
    "name" : "Nightmare",
    "manaCost" : 0,
    "type" : "Spell",
    "heroClass" : "Any",
    "rarity" : "Common",
    "description" : "Give a minion +5/+5. At the start of your next turn, destroy it.",
    "price" : 0,
    "cardImageAddress" : null,
    "summon" : false
  }, {
    "name" : "Swarm of Locusts",
    "manaCost" : 4,
    "type" : "Spell",
    "heroClass" : "Any",
    "rarity" : "Rare",
    "description" : "Summon seven 1/1 Locusts with Rush.",
    "price" : 5,
    "cardImageAddress" : null,
    "summon" : false
  }, {
    "name" : "Corruption",
    "manaCost" : 0,
    "type" : "Spell",
    "heroClass" : "Warlock",
    "rarity" : "Free",
    "description" : "Choose an enemy minion. At the start of your turn, destroy it.",
    "price" : 5,
    "cardImageAddress" : null,
    "summon" : false
  }, {
    "name" : "Swarm of Locusts",
    "manaCost" : 4,
    "type" : "Spell",
    "heroClass" : "Any",
    "rarity" : "Rare",
    "description" : "Summon seven 1/1 Locusts with Rush.",
    "price" : 5,
    "cardImageAddress" : null,
    "summon" : false
  } ],
  "cardBackImageName" : "three",
  "currentMana" : 6,
  "maxMana" : 10,
  "infoPassive" : "MANA_JUMP",
  "activeWeapon" : null,
  "soundPlay" : false,
  "backMusicName" : "one",
  "gameMusicName" : "one",
  "gameBackImageName" : "one",
  "volume" : 0,
  "id" : "200424095944"
}